{
  "swagger" : "2.0",
  "info" : {
    "title" : "sampleCalc",
    "version" : "1.0.0",
    "description" : "sampleCalc"
  },
  "paths" : {
    "/add" : {
      "get" : {
        "operationId" : "getAdd",
        "responses" : {
          "200" : {
            "description" : "The operation was successful.",
            "schema" : {
              "$ref" : "#/definitions/Calc"
            }
          }
        },
        "produces" : [ "application/json" ],
        "description" : "Retrieve add",
        "parameters" : [ {
          "name" : "value1",
          "in" : "query",
          "type" : "string"
        }, {
          "name" : "value2",
          "in" : "query",
          "type" : "string"
        } ]
      }
    },
    "/sub" : {
      "get" : {
        "operationId" : "getSub",
        "responses" : {
          "200" : {
            "description" : "The operation was successful.",
            "schema" : {
              "$ref" : "#/definitions/Calc"
            }
          }
        },
        "produces" : [ "application/json" ],
        "description" : "Retrieve sub",
        "parameters" : [ {
          "name" : "param1",
          "in" : "query",
          "type" : "string"
        }, {
          "name" : "param2",
          "in" : "query",
          "type" : "string"
        } ]
      }
    },
    "/sum" : {
      "post" : {
        "operationId" : "postSum",
        "responses" : {
          "200" : {
            "description" : "The operation was successful.",
            "schema" : {
              "$ref" : "#/definitions/calculationResponse"
            }
          }
        },
        "consumes" : [ "application/json" ],
        "produces" : [ "application/json" ],
        "description" : "Insert a sum",
        "parameters" : [ {
          "name" : "body",
          "in" : "body",
          "schema" : {
            "$ref" : "#/definitions/calculationRequest"
          },
          "description" : "The request body for the operation",
          "required" : true
        } ]
      }
    },
    "/mul" : {
      "get" : {
        "operationId" : "getMul",
        "responses" : {
          "200" : {
            "description" : "The operation was successful.",
            "schema" : {
              "$ref" : "#/definitions/Calc"
            }
          }
        },
        "produces" : [ "application/json" ],
        "description" : "Retrieve mul",
        "parameters" : [ {
          "name" : "param1",
          "in" : "query",
          "type" : "string"
        }, {
          "name" : "param2",
          "in" : "query",
          "type" : "string"
        } ]
      }
    },
    "/diff" : {
      "post" : {
        "operationId" : "postDiff",
        "responses" : {
          "200" : {
            "description" : "The operation was successful.",
            "schema" : {
              "$ref" : "#/definitions/calculationResponse"
            }
          }
        },
        "consumes" : [ "application/json" ],
        "produces" : [ "application/json" ],
        "description" : "Insert a diff",
        "parameters" : [ {
          "name" : "body",
          "in" : "body",
          "schema" : {
            "$ref" : "#/definitions/calculationRequest"
          },
          "description" : "The request body for the operation",
          "required" : true
        } ]
      }
    },
    "/prod" : {
      "post" : {
        "operationId" : "postProd",
        "responses" : {
          "200" : {
            "description" : "The operation was successful.",
            "schema" : {
              "$ref" : "#/definitions/calculationResponse"
            }
          }
        },
        "consumes" : [ "application/json" ],
        "produces" : [ "application/json" ],
        "description" : "Insert a prod",
        "parameters" : [ {
          "name" : "body",
          "in" : "body",
          "schema" : {
            "$ref" : "#/definitions/calculationRequest"
          },
          "description" : "The request body for the operation",
          "required" : true
        } ]
      }
    }
  },
  "basePath" : "/samplecalc/v1",
  "definitions" : {
    "Calc" : {
      "type" : "object",
      "properties" : {
        "sum" : {
          "type" : "string"
        }
      }
    },
    "calculationRequest" : {
      "type" : "object",
      "properties" : {
        "param1" : {
          "type" : "string"
        },
        "param2" : {
          "type" : "string"
        }
      }
    },
    "calculationResponse" : {
      "type" : "object",
      "properties" : {
        "result" : {
          "type" : "string"
        }
      }
    }
  }
}